EDA
…
histo_pheno %>%
  arrange(desc(inflam_diff)) %>%
  select(id, atrium_pct_inflam, spong_pct_inflam, inflam_diff) %>%
  head(50)

## # A tibble: 50 × 4
##    id                      atrium_pct_inflam spong_pct_inflam inflam_diff
##    <chr>                               <dbl>            <dbl>       <dbl>
##  1 2022_0221_073 (Image 2)              89.2            2.48         86.8
##  2 2022_0221_379 (Image 2)              63.1            3.01         60.0
##  3 2022_0221_218 (Image 2)              60.1            1.10         59.0
##  4 2022_0221_035 (Image 2)              50.4            1.76         48.7
##  5 2022_0221_078 (Image 2)              41.1            1.07         40.0
##  6 2022_0221_368 (Image 2)              39.9            0.621        39.2
##  7 2022_0221_327 (Image 2)              36.6            1.13         35.5
##  8 2022_0221_121 (Image 2)              35.8            2.61         33.1
##  9 2022_0221_137 (Image 2)              31.4            0.761        30.6
## 10 2022_0221_125 (Image 2)              35.4            6.27         29.2
## # ℹ 40 more rows
…
